typeR.vcd
$date
	Sat Feb 15 22:23:27 2025
$end
$version
	Icarus Verilog
$end
$timescale
	1ns
$end
$scope module Simulacao $end
$var wire 1 ! Zero $end
$var wire 32 " ReadData2 [31:0] $end
$var wire 32 # ReadData1 [31:0] $end
$var wire 32 $ ALUResult [31:0] $end
$var reg 4 % ALUOperation [3:0] $end
$var reg 5 & ReadRegister1 [4:0] $end
$var reg 5 ' ReadRegister2 [4:0] $end
$var reg 1 ( RegWrite $end
$var reg 32 ) WriteData [31:0] $end
$var reg 5 * WriteRegister [4:0] $end
$var integer 32 + i [31:0] $end
$scope module alu $end
$var wire 4 , ALUOperation [3:0] $end
$var wire 1 ! Zero $end
$var wire 32 - B [31:0] $end
$var wire 32 . A [31:0] $end
$var reg 32 / ALUResult [31:0] $end
$upscope $end
$scope module regfile $end
$var wire 32 0 ReadData1 [31:0] $end
$var wire 32 1 ReadData2 [31:0] $end
$var wire 5 2 ReadRegister1 [4:0] $end
$var wire 5 3 ReadRegister2 [4:0] $end
$var wire 1 ( RegWrite $end
$var wire 32 4 WriteData [31:0] $end
$var wire 5 5 WriteRegister [4:0] $end
$var integer 32 6 i [31:0] $end
$upscope $end
$upscope $end
$scope module Simulacao $end
$scope module regfile $end
$var reg 32 7 \registers[0] [31:0] $end
$upscope $end
$upscope $end
$scope module Simulacao $end
$scope module regfile $end
$var reg 32 8 \registers[1] [31:0] $end
$upscope $end
$upscope $end
$scope module Simulacao $end
$scope module regfile $end
$var reg 32 9 \registers[2] [31:0] $end
$upscope $end
$upscope $end
$scope module Simulacao $end
$scope module regfile $end
$var reg 32 : \registers[3] [31:0] $end
$upscope $end
$upscope $end
$scope module Simulacao $end
$scope module regfile $end
$var reg 32 ; \registers[4] [31:0] $end
$upscope $end
$upscope $end
$scope module Simulacao $end
$scope module regfile $end
$var reg 32 < \registers[5] [31:0] $end
$upscope $end
$upscope $end
$scope module Simulacao $end
$scope module regfile $end
$var reg 32 = \registers[6] [31:0] $end
$upscope $end
$upscope $end
$scope module Simulacao $end
$scope module regfile $end
$var reg 32 > \registers[7] [31:0] $end
$upscope $end
$upscope $end
$scope module Simulacao $end
$scope module regfile $end
$var reg 32 ? \registers[8] [31:0] $end
$upscope $end
$upscope $end
$scope module Simulacao $end
$scope module regfile $end
$var reg 32 @ \registers[9] [31:0] $end
$upscope $end
$upscope $end
$scope module Simulacao $end
$scope module regfile $end
$var reg 32 A \registers[10] [31:0] $end
$upscope $end
$upscope $end
$scope module Simulacao $end
$scope module regfile $end
$var reg 32 B \registers[11] [31:0] $end
$upscope $end
$upscope $end
$scope module Simulacao $end
$scope module regfile $end
$var reg 32 C \registers[12] [31:0] $end
$upscope $end
$upscope $end
$scope module Simulacao $end
$scope module regfile $end
$var reg 32 D \registers[13] [31:0] $end
$upscope $end
$upscope $end
$scope module Simulacao $end
$scope module regfile $end
$var reg 32 E \registers[14] [31:0] $end
$upscope $end
$upscope $end
$scope module Simulacao $end
$scope module regfile $end
$var reg 32 F \registers[15] [31:0] $end
$upscope $end
$upscope $end
$scope module Simulacao $end
$scope module regfile $end
$var reg 32 G \registers[16] [31:0] $end
$upscope $end
$upscope $end
$scope module Simulacao $end
$scope module regfile $end
$var reg 32 H \registers[17] [31:0] $end
$upscope $end
$upscope $end
$scope module Simulacao $end
$scope module regfile $end
$var reg 32 I \registers[18] [31:0] $end
$upscope $end
$upscope $end
$scope module Simulacao $end
$scope module regfile $end
$var reg 32 J \registers[19] [31:0] $end
$upscope $end
$upscope $end
$scope module Simulacao $end
$scope module regfile $end
$var reg 32 K \registers[20] [31:0] $end
$upscope $end
$upscope $end
$scope module Simulacao $end
$scope module regfile $end
$var reg 32 L \registers[21] [31:0] $end
$upscope $end
$upscope $end
$scope module Simulacao $end
$scope module regfile $end
$var reg 32 M \registers[22] [31:0] $end
$upscope $end
$upscope $end
$scope module Simulacao $end
$scope module regfile $end
$var reg 32 N \registers[23] [31:0] $end
$upscope $end
$upscope $end
$scope module Simulacao $end
$scope module regfile $end
$var reg 32 O \registers[24] [31:0] $end
$upscope $end
$upscope $end
$scope module Simulacao $end
$scope module regfile $end
$var reg 32 P \registers[25] [31:0] $end
$upscope $end
$upscope $end
$scope module Simulacao $end
$scope module regfile $end
$var reg 32 Q \registers[26] [31:0] $end
$upscope $end
$upscope $end
$scope module Simulacao $end
$scope module regfile $end
$var reg 32 R \registers[27] [31:0] $end
$upscope $end
$upscope $end
$scope module Simulacao $end
$scope module regfile $end
$var reg 32 S \registers[28] [31:0] $end
$upscope $end
$upscope $end
$scope module Simulacao $end
$scope module regfile $end
$var reg 32 T \registers[29] [31:0] $end
$upscope $end
$upscope $end
$scope module Simulacao $end
$scope module regfile $end
$var reg 32 U \registers[30] [31:0] $end
$upscope $end
$upscope $end
$scope module Simulacao $end
$scope module regfile $end
$var reg 32 V \registers[31] [31:0] $end
$upscope $end
$upscope $end
$enddefinitions $end
$comment Show the parameter values. $end
$dumpall
$end
#0
$dumpvars
b0 V
b0 U
b0 T
b0 S
b0 R
b0 Q
b0 P
b0 O
b0 N
b0 M
b0 L
b0 K
b0 J
b0 I
b0 H
b0 G
b0 F
b0 E
b0 D
b0 C
b0 B
b0 A
b0 @
b0 ?
b0 >
b0 =
b0 <
b0 ;
b0 :
b0 9
b0 8
b0 7
b100000 6
b0 5
b0 4
b0 3
b0 2
b0 1
b0 0
b0 /
b0 .
b0 -
b0 ,
b100000 +
b0 *
b0 )
0(
b0 '
b0 &
b0 %
b0 $
b0 #
b0 "
1!
$end
#10
b1010 8
b1010 )
b1010 4
b1 *
b1 5
1(
#20
b10100 9
b10100 )
b10100 4
b10 *
b10 5
#30
b10100 "
b10100 -
b10100 1
b10 '
b10 3
b1010 #
b1010 .
b1010 0
b1 &
b1 2
0(
#40
0!
b11110 $
b11110 /
b10 %
b10 ,
#50
b11111111111111111111111111110110 $
b11111111111111111111111111110110 /
b110 %
b110 ,
#60
1!
b0 $
b0 /
b0 %
b0 ,
#70
0!
b11111111111111111111111111110110 $
b11111111111111111111111111110110 /
b110 %
b110 ,
